{
  "project_info": {
    "project_number": "111936491274",
    "firebase_url": "https://alcohol-smoke-system.firebaseio.com",
    "project_id": "alcohol-smoke-system",
    "storage_bucket": "alcohol-smoke-system.appspot.com"
  },
  "client": [
    {
      "client_info": {
        "mobilesdk_app_id": "1:111936491274:android:f25da337894226e1",
        "android_client_info": {
          "package_name": "com.example.rohit.smartsystem"
        }
      },
      "oauth_client": [
        {
          "client_id": "111936491274-i2nn4n9itcijo2l5uslav99mkoujel3a.apps.googleusercontent.com",
          "client_type": 1,
          "android_info": {
            "package_name": "com.example.rohit.smartsystem",
            "certificate_hash": "aeb542940af62e4e489b1596d20347b39b5e16d4"
          }
        },
        {
          "client_id": "111936491274-7hvmdb8mn61ee5ri4i3pueku45d5nqc0.apps.googleusercontent.com",
          "client_type": 3
        }
      ],
      "api_key": [
        {
          "current_key": "AIzaSyDoRDSk99fiboKvvIUSoHx0TEpKDRf78FI"
        }
      ],
      "services": {
        "analytics_service": {
          "status": 1
        },
        "appinvite_service": {
          "status": 2,
          "other_platform_oauth_client": [
            {
              "client_id": "111936491274-7hvmdb8mn61ee5ri4i3pueku45d5nqc0.apps.googleusercontent.com",
              "client_type": 3
            }
          ]
        },
        "ads_service": {
          "status": 2
        }
      }
    }
  ],
  "configuration_version": "1"
}